<?xml version="1.0" encoding="UTF-8" standalone="no"?>
<svg
   viewBox="0 0 448 512"
   version="1.1"
   id="svg916"
   sodipodi:docname="maximize-solid.svg"
   inkscape:version="1.2 (dc2aedaf03, 2022-05-15)"
   xmlns:inkscape="http://www.inkscape.org/namespaces/inkscape"
   xmlns:sodipodi="http://sodipodi.sourceforge.net/DTD/sodipodi-0.dtd"
   xmlns="http://www.w3.org/2000/svg"
   xmlns:svg="http://www.w3.org/2000/svg">
  <defs
     id="defs920" />
  <sodipodi:namedview
     id="namedview918"
     pagecolor="#ffffff"
     bordercolor="#000000"
     borderopacity="0.25"
     inkscape:showpageshadow="2"
     inkscape:pageopacity="0.0"
     inkscape:pagecheckerboard="0"
     inkscape:deskcolor="#d1d1d1"
     showgrid="false"
     inkscape:zoom="1.0917969"
     inkscape:cx="70.067977"
     inkscape:cy="258.74776"
     inkscape:window-width="1364"
     inkscape:window-height="726"
     inkscape:window-x="0"
     inkscape:window-y="20"
     inkscape:window-maximized="1"
     inkscape:current-layer="svg916" />
  <!--! Font Awesome Pro 6.1.1 by @fontawesome - https://fontawesome.com License - https://fontawesome.com/license (Commercial License) Copyright 2022 Fonticons, Inc. -->
  <path
     d="m 388.57091,302.46413 v 99.72848 c 0,9.78831 -7.93546,17.05202 -17.05202,17.05202 h -99.72848 c -9.55208,0 -18.16668,-5.7438 -21.82068,-14.5791 -3.62153,-8.19383 -1.62622,-18.98606 5.12077,-25.74044 l 22.18977,-22.18977 -53.39792,-50.72791 -52.72839,52.73577 22.18977,22.18977 c 6.7588,6.7588 8.79176,16.91177 5.12078,25.74043 -3.66656,8.80652 -12.30329,13.89998 -21.82585,13.89998 H 76.245811 c -9.780921,0 -17.052021,-7.92808 -17.052021,-17.05202 v -99.72848 c 0,-9.55209 5.7438,-18.16668 14.579109,-21.82068 2.266221,-1.87499 5.337061,-2.46553 8.378374,-2.46553 6.135774,0 12.180014,2.39319 16.705074,6.91455 l 22.189773,22.18978 52.73577,-52.73578 -52.73577,-52.69664 -22.189773,22.14548 c -6.758801,6.7588 -16.911766,8.79175 -25.740431,5.12077 -8.830141,-3.64441 -14.58553,-12.28115 -14.58553,-22.46807 v -99.72848 c 0,-9.788304 7.935464,-17.052022 17.05202,-17.052022 h 99.728484 c 9.55208,0 18.16668,5.7438 21.82068,14.579112 2.53839,2.26622 2.46457,5.32968 2.46457,7.71401 0,6.13577 -2.3895,12.18001 -6.91087,16.70507 l -21.50916,22.86152 52.73577,52.73577 52.72839,-52.73577 -22.18977,-22.18977 c -6.7588,-6.7588 -8.79176,-16.91177 -5.12078,-25.74043 3.64441,-8.821287 12.2686,-14.579112 21.82069,-14.579112 h 99.72848 c 9.7883,0 17.05202,7.935464 17.05202,17.052022 v 99.72848 c 0,9.55209 -5.7438,18.16668 -14.57911,21.82068 -8.19383,3.62153 -18.98606,1.62622 -25.74043,-5.12077 l -22.18977,-22.18977 -52.72839,52.72839 52.73577,52.73577 22.18977,-22.18977 c 6.7588,-6.7588 16.91177,-8.79176 25.74043,-5.12078 10.11827,4.97831 15.21173,13.61505 15.21173,22.47324 z"
     id="path914"
     style="fill:#8800aa;stroke:#f6d5ff;stroke-width:0;stroke-dasharray:none" />
</svg>
